{
	"commentStamp" : "Casco 2/19/2019 14:54",
	"super" : "BasicLandingComponent",
	"category" : "SSCS-Seaside",
	"classinstvars" : [ ],
	"pools" : [ ],
	"classvars" : [ ],
	"instvars" : [
		"selectedAgent",
		"baseUrl"
	],
	"name" : "SSCSLandingComponent",
	"type" : "normal"
}