{
	"commentStamp" : "Casco 11/28/2018 22:25",
	"super" : "ISCAMessage",
	"category" : "ISCA-Model",
	"classinstvars" : [ ],
	"pools" : [ ],
	"classvars" : [ ],
	"instvars" : [ ],
	"name" : "AcceptProposal",
	"type" : "normal"
}