{
	"commentStamp" : "Casco 2/24/2019 20:01",
	"super" : "Object",
	"category" : "SSCS-Model",
	"classinstvars" : [ ],
	"pools" : [ ],
	"classvars" : [ ],
	"instvars" : [
		"id",
		"messages"
	],
	"name" : "SSCSConversation",
	"type" : "normal"
}